Att_Code,Calculate_ADA_YN,Calculate_ADM_YN,Description,ID,Presence_Status_CD,SchoolID,SortOrder,YearID
P,1,1,Parent Excused,2226,Absent,600,5,30
S,1,1,School Excused,2227,Present,600,7,30
I,1,1,In School Suspension,2236,Present,700,8,30
U,1,1,Unexcused,2242,Absent,700,6,30
U,1,1,Unexcused,2330,Absent,600,6,31
P,1,1,Parent Excused,2338,Absent,700,5,31
T,1,1,Tardy,2340,Present,700,3,31
I,1,1,In School Suspension,2374,Present,600,8,32
S,1,1,School Excused,2377,Present,600,7,32
U,1,1,Unexcused,2380,Absent,600,6,32
S,1,1,School Excused,2239,Present,700,7,30
P,1,1,Parent Excused,2314,Absent,100,5,31
T,1,1,Tardy,2328,Present,600,3,31
A,1,1,Absent,2334,Absent,700,2,31
I,1,1,In School Suspension,2336,Present,700,8,31
S,1,1,School Excused,2339,Present,700,7,31
S,1,1,School Excused,2365,Present,100,7,32
TE,1,1,Tardy Excused,2367,Present,100,4,32
A,1,1,Absent,2372,Absent,600,2,32
P,1,1,Parent Excused,2376,Absent,600,5,32
O,1,1,Out of School Suspension,2387,Absent,700,9,32
S,1,1,School Excused,2215,Present,100,7,30
U,1,1,Unexcused,2218,Absent,100,6,30
I,1,1,In School Suspension,2224,Present,600,8,30
S,1,1,School Excused,2315,Present,100,7,31
A,1,1,Absent,2322,Absent,600,2,31
O,1,1,Out of School Suspension,2337,Absent,700,9,31
U,1,1,Unexcused,2342,Absent,700,6,31
O,1,1,Out of School Suspension,2375,Absent,600,9,32
T,1,1,Tardy,2390,Present,700,3,32
TE,1,1,Tardy Excused,2391,Present,700,4,32
TE,1,1,Tardy Excused,2217,Present,100,4,30
U,1,1,Unexcused,2230,Absent,600,6,30
A,1,1,Absent,2310,Absent,100,2,31
O,1,1,Out of School Suspension,2313,Absent,100,9,31
TE,1,1,Tardy Excused,2317,Present,100,4,31
I,1,1,In School Suspension,2324,Present,600,8,31
S,1,1,School Excused,2327,Present,600,7,31
I,1,1,In School Suspension,2362,Present,100,8,32
U,1,1,Unexcused,2392,Absent,700,6,32
I,1,1,In School Suspension,2212,Present,100,8,30
O,1,1,Out of School Suspension,2225,Absent,600,9,30
TE,1,1,Tardy Excused,2241,Present,700,4,30
U,1,1,Unexcused,2318,Absent,100,6,31
P,1,1,Parent Excused,2364,Absent,100,5,32
U,1,1,Unexcused,2368,Absent,100,6,32
TE,1,1,Tardy Excused,2379,Present,600,4,32
T,1,1,Tardy,2216,Present,100,3,30
T,1,1,Tardy,2228,Present,600,3,30
O,1,1,Out of School Suspension,2237,Absent,700,9,30
I,1,1,In School Suspension,2312,Present,100,8,31
O,1,1,Out of School Suspension,2325,Absent,600,9,31
TE,1,1,Tardy Excused,2329,Present,600,4,31
TE,1,1,Tardy Excused,2341,Present,700,4,31
P,1,1,Parent Excused,2388,Absent,700,5,32
TE,1,1,Tardy Excused,2229,Present,600,4,30
A,1,1,Absent,2234,Absent,700,2,30
T,1,1,Tardy,2240,Present,700,3,30
T,1,1,Tardy,2316,Present,100,3,31
A,1,1,Absent,2360,Absent,100,2,32
O,1,1,Out of School Suspension,2363,Absent,100,9,32
A,1,1,Absent,2384,Absent,700,2,32
S,1,1,School Excused,2389,Present,700,7,32
A,1,1,Absent,2210,Absent,100,2,30
O,1,1,Out of School Suspension,2213,Absent,100,9,30
P,1,1,Parent Excused,2214,Absent,100,5,30
A,1,1,Absent,2222,Absent,600,2,30
P,1,1,Parent Excused,2238,Absent,700,5,30
P,1,1,Parent Excused,2326,Absent,600,5,31
T,1,1,Tardy,2366,Present,100,3,32
T,1,1,Tardy,2378,Present,600,3,32
I,1,1,In School Suspension,2386,Present,700,8,32
